Laboratório Especial
…
  return(mapa)
}

# --- Exemplo de uso ---
trajeto_aeronave("N4XXAA")

# A tibble: 1,196 × 39
   DATETIME            ORIGIN_AIRPORT DESTINATION_AIRPORT  YEAR MONTH   DAY
   <dttm>              <chr>          <chr>               <dbl> <dbl> <dbl>
 1 2015-01-01 06:10:00 LAX            STL                  2015     1     1
 2 2015-01-01 06:25:00 LAX            AUS                  2015     1     1
 3 2015-01-01 12:25:00 STL            LAX                  2015     1     1
 4 2015-01-01 14:30:00 LAX            AUS                  2015     1     1
 5 2015-01-02 07:40:00 AUS            DFW                  2015     1     2
 6 2015-01-02 09:40:00 DFW            SLC                  2015     1     2
 7 2015-01-02 12:10:00 SLC            DFW                  2015     1     2
 8 2015-01-02 16:35:00 DFW            SJC                  2015     1     2
 9 2015-01-03 08:30:00 SJC            DFW                  2015     1     3
10 2015-01-03 15:00:00 DFW            TPA                  2015     1     3
# ℹ 1,186 more rows
# ℹ 33 more variables: DAY_OF_WEEK <dbl>, AIRLINE <chr>, FLIGHT_NUMBER <dbl>,
#   TAIL_NUMBER <chr>, SCHEDULED_DEPARTURE <chr>, DEPARTURE_TIME <chr>,
#   DEPARTURE_DELAY <dbl>, TAXI_OUT <dbl>, WHEELS_OFF <chr>,
#   SCHEDULED_TIME <dbl>, ELAPSED_TIME <dbl>, AIR_TIME <dbl>, DISTANCE <dbl>,
#   WHEELS_ON <chr>, TAXI_IN <dbl>, SCHEDULED_ARRIVAL <chr>,
#   ARRIVAL_TIME <chr>, ARRIVAL_DELAY <dbl>, DIVERTED <dbl>, CANCELLED <dbl>, …
